{
	"source": "UE",
	"applications": [
		{
			"app_key": "application.generated.ue.myfirstgamelift-0.ue4editor.exe",
			"launch_type": "url",
			"url": "steam://launch/",
			"action_manifest_path": "D:/unRealTest/Config/SteamVRBindings/steamvr_manifest.json",
			"strings":
			{
				"en_us":
				{
					"name": "MyFirstGameLift-0 [UE Editor]"
				}
			}
		}
	]
}